%TF.GenerationSoftware,KiCad,Pcbnew,5.1.10-1.fc33*%
%TF.CreationDate,2021-08-22T21:30:21-07:00*%
%TF.ProjectId,RJ45-quad,524a3435-2d71-4756-9164-2e6b69636164,rev?*%
%TF.SameCoordinates,Original*%
%TF.FileFunction,Legend,Bot*%
%TF.FilePolarity,Positive*%
%FSLAX46Y46*%
G04 Gerber Fmt 4.6, Leading zero omitted, Abs format (unit mm)*
G04 Created by KiCad (PCBNEW 5.1.10-1.fc33) date 2021-08-22 21:30:21*
%MOMM*%
%LPD*%
G01*
G04 APERTURE LIST*
%ADD10C,0.100000*%
%ADD11C,0.120000*%
%ADD12C,0.075000*%
%ADD13C,0.080000*%
G04 APERTURE END LIST*
D10*
X40233571Y-90745714D02*
X40833571Y-90745714D01*
X40833571Y-90602857D01*
X40805000Y-90517142D01*
X40747857Y-90460000D01*
X40690714Y-90431428D01*
X40576428Y-90402857D01*
X40490714Y-90402857D01*
X40376428Y-90431428D01*
X40319285Y-90460000D01*
X40262142Y-90517142D01*
X40233571Y-90602857D01*
X40233571Y-90745714D01*
X40233571Y-90145714D02*
X40633571Y-90145714D01*
X40833571Y-90145714D02*
X40805000Y-90174285D01*
X40776428Y-90145714D01*
X40805000Y-90117142D01*
X40833571Y-90145714D01*
X40776428Y-90145714D01*
X40633571Y-89945714D02*
X40633571Y-89717142D01*
X40233571Y-89860000D02*
X40747857Y-89860000D01*
X40805000Y-89831428D01*
X40833571Y-89774285D01*
X40833571Y-89717142D01*
X40633571Y-89602857D02*
X40633571Y-89374285D01*
X40233571Y-89517142D02*
X40747857Y-89517142D01*
X40805000Y-89488571D01*
X40833571Y-89431428D01*
X40833571Y-89374285D01*
X40262142Y-88945714D02*
X40233571Y-89002857D01*
X40233571Y-89117142D01*
X40262142Y-89174285D01*
X40319285Y-89202857D01*
X40547857Y-89202857D01*
X40605000Y-89174285D01*
X40633571Y-89117142D01*
X40633571Y-89002857D01*
X40605000Y-88945714D01*
X40547857Y-88917142D01*
X40490714Y-88917142D01*
X40433571Y-89202857D01*
X40233571Y-88660000D02*
X40633571Y-88660000D01*
X40519285Y-88660000D02*
X40576428Y-88631428D01*
X40605000Y-88602857D01*
X40633571Y-88545714D01*
X40633571Y-88488571D01*
X40262142Y-88060000D02*
X40233571Y-88117142D01*
X40233571Y-88231428D01*
X40262142Y-88288571D01*
X40319285Y-88317142D01*
X40547857Y-88317142D01*
X40605000Y-88288571D01*
X40633571Y-88231428D01*
X40633571Y-88117142D01*
X40605000Y-88060000D01*
X40547857Y-88031428D01*
X40490714Y-88031428D01*
X40433571Y-88317142D01*
X40633571Y-87774285D02*
X40233571Y-87774285D01*
X40576428Y-87774285D02*
X40605000Y-87745714D01*
X40633571Y-87688571D01*
X40633571Y-87602857D01*
X40605000Y-87545714D01*
X40547857Y-87517142D01*
X40233571Y-87517142D01*
X40633571Y-87317142D02*
X40633571Y-87088571D01*
X40833571Y-87231428D02*
X40319285Y-87231428D01*
X40262142Y-87202857D01*
X40233571Y-87145714D01*
X40233571Y-87088571D01*
X40233571Y-86888571D02*
X40633571Y-86888571D01*
X40833571Y-86888571D02*
X40805000Y-86917142D01*
X40776428Y-86888571D01*
X40805000Y-86860000D01*
X40833571Y-86888571D01*
X40776428Y-86888571D01*
X40233571Y-86345714D02*
X40547857Y-86345714D01*
X40605000Y-86374285D01*
X40633571Y-86431428D01*
X40633571Y-86545714D01*
X40605000Y-86602857D01*
X40262142Y-86345714D02*
X40233571Y-86402857D01*
X40233571Y-86545714D01*
X40262142Y-86602857D01*
X40319285Y-86631428D01*
X40376428Y-86631428D01*
X40433571Y-86602857D01*
X40462142Y-86545714D01*
X40462142Y-86402857D01*
X40490714Y-86345714D01*
X40233571Y-85974285D02*
X40262142Y-86031428D01*
X40319285Y-86060000D01*
X40833571Y-86060000D01*
X40833571Y-85374285D02*
X40833571Y-85031428D01*
X40233571Y-85202857D02*
X40833571Y-85202857D01*
X40233571Y-84831428D02*
X40833571Y-84831428D01*
X40405000Y-84574285D02*
X40405000Y-84288571D01*
X40233571Y-84631428D02*
X40833571Y-84431428D01*
X40233571Y-84231428D01*
X40633571Y-83631428D02*
X40233571Y-83488571D01*
X40633571Y-83345714D01*
X40233571Y-82802857D02*
X40233571Y-83145714D01*
X40233571Y-82974285D02*
X40833571Y-82974285D01*
X40747857Y-83031428D01*
X40690714Y-83088571D01*
X40662142Y-83145714D01*
X40290714Y-82545714D02*
X40262142Y-82517142D01*
X40233571Y-82545714D01*
X40262142Y-82574285D01*
X40290714Y-82545714D01*
X40233571Y-82545714D01*
X40833571Y-82145714D02*
X40833571Y-82088571D01*
X40805000Y-82031428D01*
X40776428Y-82002857D01*
X40719285Y-81974285D01*
X40605000Y-81945714D01*
X40462142Y-81945714D01*
X40347857Y-81974285D01*
X40290714Y-82002857D01*
X40262142Y-82031428D01*
X40233571Y-82088571D01*
X40233571Y-82145714D01*
X40262142Y-82202857D01*
X40290714Y-82231428D01*
X40347857Y-82260000D01*
X40462142Y-82288571D01*
X40605000Y-82288571D01*
X40719285Y-82260000D01*
X40776428Y-82231428D01*
X40805000Y-82202857D01*
X40833571Y-82145714D01*
X39405000Y-91088571D02*
X39405000Y-90802857D01*
X39233571Y-91145714D02*
X39833571Y-90945714D01*
X39233571Y-90745714D01*
X39233571Y-90288571D02*
X39547857Y-90288571D01*
X39605000Y-90317142D01*
X39633571Y-90374285D01*
X39633571Y-90488571D01*
X39605000Y-90545714D01*
X39262142Y-90288571D02*
X39233571Y-90345714D01*
X39233571Y-90488571D01*
X39262142Y-90545714D01*
X39319285Y-90574285D01*
X39376428Y-90574285D01*
X39433571Y-90545714D01*
X39462142Y-90488571D01*
X39462142Y-90345714D01*
X39490714Y-90288571D01*
X39233571Y-90002857D02*
X39633571Y-90002857D01*
X39519285Y-90002857D02*
X39576428Y-89974285D01*
X39605000Y-89945714D01*
X39633571Y-89888571D01*
X39633571Y-89831428D01*
X39233571Y-89545714D02*
X39262142Y-89602857D01*
X39290714Y-89631428D01*
X39347857Y-89660000D01*
X39519285Y-89660000D01*
X39576428Y-89631428D01*
X39605000Y-89602857D01*
X39633571Y-89545714D01*
X39633571Y-89460000D01*
X39605000Y-89402857D01*
X39576428Y-89374285D01*
X39519285Y-89345714D01*
X39347857Y-89345714D01*
X39290714Y-89374285D01*
X39262142Y-89402857D01*
X39233571Y-89460000D01*
X39233571Y-89545714D01*
X39633571Y-89088571D02*
X39233571Y-89088571D01*
X39576428Y-89088571D02*
X39605000Y-89060000D01*
X39633571Y-89002857D01*
X39633571Y-88917142D01*
X39605000Y-88860000D01*
X39547857Y-88831428D01*
X39233571Y-88831428D01*
X39262142Y-88117142D02*
X39233571Y-88031428D01*
X39233571Y-87888571D01*
X39262142Y-87831428D01*
X39290714Y-87802857D01*
X39347857Y-87774285D01*
X39405000Y-87774285D01*
X39462142Y-87802857D01*
X39490714Y-87831428D01*
X39519285Y-87888571D01*
X39547857Y-88002857D01*
X39576428Y-88060000D01*
X39605000Y-88088571D01*
X39662142Y-88117142D01*
X39719285Y-88117142D01*
X39776428Y-88088571D01*
X39805000Y-88060000D01*
X39833571Y-88002857D01*
X39833571Y-87860000D01*
X39805000Y-87774285D01*
X39262142Y-87260000D02*
X39233571Y-87317142D01*
X39233571Y-87431428D01*
X39262142Y-87488571D01*
X39290714Y-87517142D01*
X39347857Y-87545714D01*
X39519285Y-87545714D01*
X39576428Y-87517142D01*
X39605000Y-87488571D01*
X39633571Y-87431428D01*
X39633571Y-87317142D01*
X39605000Y-87260000D01*
X39233571Y-87002857D02*
X39833571Y-87002857D01*
X39233571Y-86745714D02*
X39547857Y-86745714D01*
X39605000Y-86774285D01*
X39633571Y-86831428D01*
X39633571Y-86917142D01*
X39605000Y-86974285D01*
X39576428Y-87002857D01*
X39233571Y-86460000D02*
X39633571Y-86460000D01*
X39519285Y-86460000D02*
X39576428Y-86431428D01*
X39605000Y-86402857D01*
X39633571Y-86345714D01*
X39633571Y-86288571D01*
X39233571Y-85831428D02*
X39547857Y-85831428D01*
X39605000Y-85860000D01*
X39633571Y-85917142D01*
X39633571Y-86031428D01*
X39605000Y-86088571D01*
X39262142Y-85831428D02*
X39233571Y-85888571D01*
X39233571Y-86031428D01*
X39262142Y-86088571D01*
X39319285Y-86117142D01*
X39376428Y-86117142D01*
X39433571Y-86088571D01*
X39462142Y-86031428D01*
X39462142Y-85888571D01*
X39490714Y-85831428D01*
X39633571Y-85545714D02*
X39233571Y-85545714D01*
X39576428Y-85545714D02*
X39605000Y-85517142D01*
X39633571Y-85460000D01*
X39633571Y-85374285D01*
X39605000Y-85317142D01*
X39547857Y-85288571D01*
X39233571Y-85288571D01*
X39262142Y-84774285D02*
X39233571Y-84831428D01*
X39233571Y-84945714D01*
X39262142Y-85002857D01*
X39319285Y-85031428D01*
X39547857Y-85031428D01*
X39605000Y-85002857D01*
X39633571Y-84945714D01*
X39633571Y-84831428D01*
X39605000Y-84774285D01*
X39547857Y-84745714D01*
X39490714Y-84745714D01*
X39433571Y-85031428D01*
X39233571Y-84488571D02*
X39633571Y-84488571D01*
X39519285Y-84488571D02*
X39576428Y-84460000D01*
X39605000Y-84431428D01*
X39633571Y-84374285D01*
X39633571Y-84317142D01*
X39776428Y-83688571D02*
X39805000Y-83660000D01*
X39833571Y-83602857D01*
X39833571Y-83460000D01*
X39805000Y-83402857D01*
X39776428Y-83374285D01*
X39719285Y-83345714D01*
X39662142Y-83345714D01*
X39576428Y-83374285D01*
X39233571Y-83717142D01*
X39233571Y-83345714D01*
X39833571Y-82974285D02*
X39833571Y-82917142D01*
X39805000Y-82860000D01*
X39776428Y-82831428D01*
X39719285Y-82802857D01*
X39605000Y-82774285D01*
X39462142Y-82774285D01*
X39347857Y-82802857D01*
X39290714Y-82831428D01*
X39262142Y-82860000D01*
X39233571Y-82917142D01*
X39233571Y-82974285D01*
X39262142Y-83031428D01*
X39290714Y-83060000D01*
X39347857Y-83088571D01*
X39462142Y-83117142D01*
X39605000Y-83117142D01*
X39719285Y-83088571D01*
X39776428Y-83060000D01*
X39805000Y-83031428D01*
X39833571Y-82974285D01*
X39776428Y-82545714D02*
X39805000Y-82517142D01*
X39833571Y-82460000D01*
X39833571Y-82317142D01*
X39805000Y-82260000D01*
X39776428Y-82231428D01*
X39719285Y-82202857D01*
X39662142Y-82202857D01*
X39576428Y-82231428D01*
X39233571Y-82574285D01*
X39233571Y-82202857D01*
X39233571Y-81631428D02*
X39233571Y-81974285D01*
X39233571Y-81802857D02*
X39833571Y-81802857D01*
X39747857Y-81860000D01*
X39690714Y-81917142D01*
X39662142Y-81974285D01*
D11*
X68961000Y-87884000D02*
X68580000Y-87503000D01*
X68199000Y-87884000D02*
X68580000Y-87503000D01*
X68580000Y-88900000D02*
X70104000Y-88900000D01*
X68580000Y-87503000D02*
X68580000Y-88646000D01*
X68580000Y-88900000D02*
X68580000Y-88646000D01*
X68072000Y-92710000D02*
X69088000Y-92710000D01*
X68580000Y-91440000D02*
X70104000Y-91440000D01*
X68326000Y-92964000D02*
X68834000Y-92964000D01*
X68580000Y-91694000D02*
X68580000Y-92456000D01*
X67818000Y-92456000D02*
X69342000Y-92456000D01*
X68580000Y-91694000D02*
X68580000Y-91440000D01*
X67310000Y-81280000D02*
X64516000Y-81280000D01*
X56134000Y-85090000D02*
X56134000Y-85852000D01*
X58166000Y-85090000D02*
X58166000Y-85852000D01*
X57658000Y-85090000D02*
G75*
G03*
X57658000Y-85090000I-127000J0D01*
G01*
X56134000Y-85090000D02*
X56642000Y-85090000D01*
D12*
X57566666Y-84308190D02*
X57566666Y-84665333D01*
X57590476Y-84736761D01*
X57638095Y-84784380D01*
X57709523Y-84808190D01*
X57757142Y-84808190D01*
X57328571Y-84808190D02*
X57328571Y-84308190D01*
X57138095Y-84308190D01*
X57090476Y-84332000D01*
X57066666Y-84355809D01*
X57042857Y-84403428D01*
X57042857Y-84474857D01*
X57066666Y-84522476D01*
X57090476Y-84546285D01*
X57138095Y-84570095D01*
X57328571Y-84570095D01*
X56566666Y-84808190D02*
X56852380Y-84808190D01*
X56709523Y-84808190D02*
X56709523Y-84308190D01*
X56757142Y-84379619D01*
X56804761Y-84427238D01*
X56852380Y-84451047D01*
D11*
X56896000Y-85090000D02*
G75*
G03*
X56896000Y-85090000I-127000J0D01*
G01*
X57658000Y-85090000D02*
X58166000Y-85090000D01*
X57277000Y-85852000D02*
X61976000Y-85852000D01*
X57277000Y-86233000D02*
X57277000Y-85471000D01*
X57023000Y-86233000D02*
X57023000Y-85471000D01*
X51308000Y-87376000D02*
X52324000Y-87376000D01*
D13*
X50419000Y-87376000D02*
X50673000Y-87376000D01*
D11*
X51308000Y-87376000D02*
G75*
G03*
X51308000Y-87376000I-508000J0D01*
G01*
D13*
X51054000Y-87249000D02*
X51054000Y-87503000D01*
X50546000Y-87249000D02*
X50546000Y-87503000D01*
D11*
X60706000Y-87376000D02*
X61976000Y-87376000D01*
D13*
X49149000Y-84074000D02*
X49403000Y-84074000D01*
X49276000Y-84709000D02*
X49276000Y-84455000D01*
X49149000Y-84582000D02*
X49403000Y-84582000D01*
D11*
X49276000Y-83566000D02*
X50800000Y-83566000D01*
X49276000Y-83820000D02*
X49276000Y-83566000D01*
X49784000Y-84328000D02*
G75*
G03*
X49784000Y-84328000I-508000J0D01*
G01*
D12*
X49502190Y-85772666D02*
X49502190Y-85486952D01*
X49502190Y-85629809D02*
X49002190Y-85629809D01*
X49073619Y-85582190D01*
X49121238Y-85534571D01*
X49145047Y-85486952D01*
X49049809Y-85963142D02*
X49026000Y-85986952D01*
X49002190Y-86034571D01*
X49002190Y-86153619D01*
X49026000Y-86201238D01*
X49049809Y-86225047D01*
X49097428Y-86248857D01*
X49145047Y-86248857D01*
X49216476Y-86225047D01*
X49502190Y-85939333D01*
X49502190Y-86248857D01*
X49002190Y-86558380D02*
X49002190Y-86606000D01*
X49026000Y-86653619D01*
X49049809Y-86677428D01*
X49097428Y-86701238D01*
X49192666Y-86725047D01*
X49311714Y-86725047D01*
X49406952Y-86701238D01*
X49454571Y-86677428D01*
X49478380Y-86653619D01*
X49502190Y-86606000D01*
X49502190Y-86558380D01*
X49478380Y-86510761D01*
X49454571Y-86486952D01*
X49406952Y-86463142D01*
X49311714Y-86439333D01*
X49192666Y-86439333D01*
X49097428Y-86463142D01*
X49049809Y-86486952D01*
X49026000Y-86510761D01*
X49002190Y-86558380D01*
D11*
X68580000Y-83820000D02*
X70104000Y-83820000D01*
X68580000Y-84074000D02*
X68580000Y-83820000D01*
X68326000Y-85344000D02*
X68834000Y-85344000D01*
X68072000Y-85090000D02*
X69088000Y-85090000D01*
X68580000Y-84074000D02*
X68580000Y-84836000D01*
X67818000Y-84836000D02*
X69342000Y-84836000D01*
D12*
X57447619Y-87602190D02*
X57733333Y-87602190D01*
X57590476Y-87602190D02*
X57590476Y-87102190D01*
X57638095Y-87173619D01*
X57685714Y-87221238D01*
X57733333Y-87245047D01*
X57138095Y-87102190D02*
X57090476Y-87102190D01*
X57042857Y-87126000D01*
X57019047Y-87149809D01*
X56995238Y-87197428D01*
X56971428Y-87292666D01*
X56971428Y-87411714D01*
X56995238Y-87506952D01*
X57019047Y-87554571D01*
X57042857Y-87578380D01*
X57090476Y-87602190D01*
X57138095Y-87602190D01*
X57185714Y-87578380D01*
X57209523Y-87554571D01*
X57233333Y-87506952D01*
X57257142Y-87411714D01*
X57257142Y-87292666D01*
X57233333Y-87197428D01*
X57209523Y-87149809D01*
X57185714Y-87126000D01*
X57138095Y-87102190D01*
X56757142Y-87602190D02*
X56757142Y-87102190D01*
X56709523Y-87411714D02*
X56566666Y-87602190D01*
X56566666Y-87268857D02*
X56757142Y-87459333D01*
X64150857Y-84300190D02*
X64436571Y-84300190D01*
X64293714Y-84300190D02*
X64293714Y-83800190D01*
X64341333Y-83871619D01*
X64388952Y-83919238D01*
X64436571Y-83943047D01*
X63936571Y-84300190D02*
X63936571Y-83800190D01*
X63769904Y-84157333D01*
X63603238Y-83800190D01*
X63603238Y-84300190D01*
X62392666Y-83292190D02*
X62392666Y-83649333D01*
X62416476Y-83720761D01*
X62464095Y-83768380D01*
X62535523Y-83792190D01*
X62583142Y-83792190D01*
X62154571Y-83792190D02*
X62154571Y-83292190D01*
X61964095Y-83292190D01*
X61916476Y-83316000D01*
X61892666Y-83339809D01*
X61868857Y-83387428D01*
X61868857Y-83458857D01*
X61892666Y-83506476D01*
X61916476Y-83530285D01*
X61964095Y-83554095D01*
X62154571Y-83554095D01*
X61678380Y-83339809D02*
X61654571Y-83316000D01*
X61606952Y-83292190D01*
X61487904Y-83292190D01*
X61440285Y-83316000D01*
X61416476Y-83339809D01*
X61392666Y-83387428D01*
X61392666Y-83435047D01*
X61416476Y-83506476D01*
X61702190Y-83792190D01*
X61392666Y-83792190D01*
D11*
X61722000Y-84074000D02*
G75*
G03*
X61722000Y-84074000I-127000J0D01*
G01*
X62484000Y-84074000D02*
G75*
G03*
X62484000Y-84074000I-127000J0D01*
G01*
X60960000Y-82804000D02*
X60960000Y-82296000D01*
X60960000Y-84074000D02*
X60960000Y-82804000D01*
X60960000Y-84074000D02*
X61468000Y-84074000D01*
X67310000Y-81280000D02*
X70104000Y-81280000D01*
X66167000Y-84074000D02*
X66167000Y-81280000D01*
X65278000Y-84074000D02*
X66167000Y-84074000D01*
X60960000Y-84074000D02*
X60960000Y-87376000D01*
X66167000Y-86614000D02*
X66167000Y-84074000D01*
X65024000Y-86614000D02*
X66167000Y-86614000D01*
X63246000Y-84582000D02*
X63246000Y-84074000D01*
X63246000Y-83566000D02*
X64770000Y-83566000D01*
X64770000Y-84074000D02*
X65278000Y-84074000D01*
X63246000Y-84074000D02*
X63246000Y-83566000D01*
X64770000Y-83566000D02*
X64770000Y-84582000D01*
X64770000Y-84582000D02*
X63246000Y-84582000D01*
X62484000Y-84074000D02*
X63246000Y-84074000D01*
X56388000Y-87884000D02*
X56388000Y-87376000D01*
X56388000Y-86868000D02*
X57912000Y-86868000D01*
X57912000Y-87376000D02*
X60706000Y-87376000D01*
X56388000Y-87376000D02*
X56388000Y-86868000D01*
X57912000Y-86868000D02*
X57912000Y-87884000D01*
X57912000Y-87884000D02*
X56388000Y-87884000D01*
X65024000Y-86614000D02*
X61976000Y-84836000D01*
X61976000Y-84836000D02*
X61976000Y-88392000D01*
X61976000Y-88392000D02*
X65024000Y-86614000D01*
X62230000Y-87376000D02*
X62738000Y-87376000D01*
X62484000Y-86106000D02*
X62484000Y-85598000D01*
X62230000Y-85852000D02*
X62738000Y-85852000D01*
X54991000Y-88646000D02*
X55499000Y-88646000D01*
X54737000Y-88392000D02*
X55753000Y-88392000D01*
X54483000Y-88138000D02*
X56007000Y-88138000D01*
X55245000Y-87376000D02*
X55245000Y-88138000D01*
X54102000Y-87376000D02*
X56388000Y-87376000D01*
X54102000Y-85852000D02*
X57023000Y-85852000D01*
X52578000Y-87376000D02*
X53086000Y-87376000D01*
X52578000Y-85852000D02*
X53086000Y-85852000D01*
X52832000Y-86106000D02*
X52832000Y-85598000D01*
X49276000Y-85344000D02*
X49276000Y-84836000D01*
X49784000Y-86868000D02*
X49276000Y-86868000D01*
X49784000Y-85344000D02*
X49784000Y-86868000D01*
X48768000Y-85344000D02*
X49784000Y-85344000D01*
X48768000Y-86868000D02*
X48768000Y-85344000D01*
X49276000Y-86868000D02*
X48768000Y-86868000D01*
X49276000Y-87376000D02*
X49276000Y-86868000D01*
X55372000Y-86614000D02*
X52324000Y-84836000D01*
X52324000Y-88392000D02*
X55372000Y-86614000D01*
X52324000Y-84836000D02*
X52324000Y-88392000D01*
X50800000Y-85852000D02*
X52324000Y-85852000D01*
X50800000Y-82296000D02*
X50800000Y-85852000D01*
X48260000Y-87376000D02*
X50292000Y-87376000D01*
X48260000Y-82296000D02*
X48260000Y-87376000D01*
D10*
%TO.C,D1*%
X66672000Y-91948000D02*
G75*
G03*
X66672000Y-91948000I-50000J0D01*
G01*
D11*
%TO.C,R6*%
X62838359Y-92328000D02*
X63145641Y-92328000D01*
X62838359Y-91568000D02*
X63145641Y-91568000D01*
%TO.C,D1*%
D10*
X65974857Y-91203428D02*
X65974857Y-90603428D01*
X65832000Y-90603428D01*
X65746285Y-90632000D01*
X65689142Y-90689142D01*
X65660571Y-90746285D01*
X65632000Y-90860571D01*
X65632000Y-90946285D01*
X65660571Y-91060571D01*
X65689142Y-91117714D01*
X65746285Y-91174857D01*
X65832000Y-91203428D01*
X65974857Y-91203428D01*
X65060571Y-91203428D02*
X65403428Y-91203428D01*
X65232000Y-91203428D02*
X65232000Y-90603428D01*
X65289142Y-90689142D01*
X65346285Y-90746285D01*
X65403428Y-90774857D01*
%TO.C,R6*%
X63092000Y-91203428D02*
X63292000Y-90917714D01*
X63434857Y-91203428D02*
X63434857Y-90603428D01*
X63206285Y-90603428D01*
X63149142Y-90632000D01*
X63120571Y-90660571D01*
X63092000Y-90717714D01*
X63092000Y-90803428D01*
X63120571Y-90860571D01*
X63149142Y-90889142D01*
X63206285Y-90917714D01*
X63434857Y-90917714D01*
X62577714Y-90603428D02*
X62692000Y-90603428D01*
X62749142Y-90632000D01*
X62777714Y-90660571D01*
X62834857Y-90746285D01*
X62863428Y-90860571D01*
X62863428Y-91089142D01*
X62834857Y-91146285D01*
X62806285Y-91174857D01*
X62749142Y-91203428D01*
X62634857Y-91203428D01*
X62577714Y-91174857D01*
X62549142Y-91146285D01*
X62520571Y-91089142D01*
X62520571Y-90946285D01*
X62549142Y-90889142D01*
X62577714Y-90860571D01*
X62634857Y-90832000D01*
X62749142Y-90832000D01*
X62806285Y-90860571D01*
X62834857Y-90889142D01*
X62863428Y-90946285D01*
%TD*%
M02*
