%!PS-Adobe-3.0
%%Creator: PCBNEW
%%CreationDate: Sun Aug 22 21:30:33 2021
%%Title: /home/aaron/Documents/Reflection-analyzer/RJ45-quad/gerber/RJ45-quad-PTH-drl_map.ps
%%Pages: 1
%%PageOrder: Ascend
%%BoundingBox: 0 0 596 842
%%DocumentMedia: A4 595 842 0 () ()
%%Orientation: Landscape
%%EndComments
%%BeginProlog
/line { newpath moveto lineto stroke } bind def
/cir0 { newpath 0 360 arc stroke } bind def
/cir1 { newpath 0 360 arc gsave fill grestore stroke } bind def
/cir2 { newpath 0 360 arc gsave fill grestore stroke } bind def
/arc0 { newpath arc stroke } bind def
/arc1 { newpath 4 index 4 index moveto arc closepath gsave fill
    grestore stroke } bind def
/arc2 { newpath 4 index 4 index moveto arc closepath gsave fill
    grestore stroke } bind def
/poly0 { stroke } bind def
/poly1 { closepath gsave fill grestore stroke } bind def
/poly2 { closepath gsave fill grestore stroke } bind def
/rect0 { rectstroke } bind def
/rect1 { rectfill } bind def
/rect2 { rectfill } bind def
/linemode0 { 0 setlinecap 0 setlinejoin 0 setlinewidth } bind def
/linemode1 { 1 setlinecap 1 setlinejoin } bind def
/dashedline { [200] 100 setdash } bind def
/solidline { [] 0 setdash } bind def
/phantomshow { moveto
    /KicadFont findfont 0.000001 scalefont setfont
    show } bind def
/textshow { gsave
    findfont exch scalefont setfont concat 1 scale 0 0 moveto show
    } bind def
/reencodefont {
  findfont dup length dict begin
  { 1 index /FID ne
    { def }
    { pop pop } ifelse
  } forall
  /Encoding ISOLatin1Encoding def
  currentdict
  end } bind def
/KicadFont /Helvetica reencodefont definefont pop
/KicadFont-Bold /Helvetica-Bold reencodefont definefont pop
/KicadFont-Oblique /Helvetica-Oblique reencodefont definefont pop
/KicadFont-BoldOblique /Helvetica-BoldOblique reencodefont definefont pop
%%EndProlog
%%Page: 1 1
%%BeginPageSetup
gsave
0.0072 0.0072 scale
linemode1
82680 0 translate 90 rotate
150 setlinewidth
%%EndPageSetup
0 0 0 setrgbcolor
59.0551 setlinewidth
39715 50376 2250 180 270 arc0
0 0 0 setrgbcolor
39715 65376 2250 90 180 arc0
0 0 0 setrgbcolor
77965 66126 1500 -0 90 arc0
0 0 0 setrgbcolor
77215 50376 2250 -90 -0 arc0
0 0 0 setrgbcolor
newpath
79465 50376 moveto
79465 66126 lineto
stroke
0 0 0 setrgbcolor
newpath
39715 48126 moveto
77215 48126 lineto
stroke
0 0 0 setrgbcolor
newpath
37465 65376 moveto
37465 50376 lineto
stroke
0 0 0 setrgbcolor
newpath
77965 67626 moveto
39715 67626 lineto
stroke
78.7394 setlinewidth
newpath
40978.8 66362.2 moveto
41451.2 65889.8 lineto
stroke
newpath
41451.2 66362.2 moveto
40978.8 65889.8 lineto
stroke
newpath
40978.8 49862.2 moveto
41451.2 49389.8 lineto
stroke
newpath
41451.2 49862.2 moveto
40978.8 49389.8 lineto
stroke
newpath
42478.8 61262.2 moveto
42951.2 60789.8 lineto
stroke
newpath
42951.2 61262.2 moveto
42478.8 60789.8 lineto
stroke
newpath
42495.3 59505.9 moveto
42967.8 59033.5 lineto
stroke
newpath
42967.8 59505.9 moveto
42495.3 59033.5 lineto
stroke
newpath
42805.4 52218.5 moveto
43277.8 51746.1 lineto
stroke
newpath
43277.8 52218.5 moveto
42805.4 51746.1 lineto
stroke
newpath
43978.8 66362.2 moveto
44451.2 65889.8 lineto
stroke
newpath
44451.2 66362.2 moveto
43978.8 65889.8 lineto
stroke
newpath
44278.8 57362.2 moveto
44751.2 56889.8 lineto
stroke
newpath
44751.2 57362.2 moveto
44278.8 56889.8 lineto
stroke
newpath
44278.8 54362.2 moveto
44751.2 53889.8 lineto
stroke
newpath
44751.2 54362.2 moveto
44278.8 53889.8 lineto
stroke
newpath
45478.8 49862.2 moveto
45951.2 49389.8 lineto
stroke
newpath
45951.2 49862.2 moveto
45478.8 49389.8 lineto
stroke
newpath
49978.8 49862.2 moveto
50451.2 49389.8 lineto
stroke
newpath
50451.2 49862.2 moveto
49978.8 49389.8 lineto
stroke
newpath
54478.8 49862.2 moveto
54951.2 49389.8 lineto
stroke
newpath
54951.2 49862.2 moveto
54478.8 49389.8 lineto
stroke
newpath
55978.8 66362.2 moveto
56451.2 65889.8 lineto
stroke
newpath
56451.2 66362.2 moveto
55978.8 65889.8 lineto
stroke
newpath
57478.8 54362.2 moveto
57951.2 53889.8 lineto
stroke
newpath
57951.2 54362.2 moveto
57478.8 53889.8 lineto
stroke
newpath
58978.8 49862.2 moveto
59451.2 49389.8 lineto
stroke
newpath
59451.2 49862.2 moveto
58978.8 49389.8 lineto
stroke
newpath
60478.8 66362.2 moveto
60951.2 65889.8 lineto
stroke
newpath
60951.2 66362.2 moveto
60478.8 65889.8 lineto
stroke
newpath
62728.8 62612.2 moveto
63201.2 62139.8 lineto
stroke
newpath
63201.2 62612.2 moveto
62728.8 62139.8 lineto
stroke
newpath
62728.8 58112.2 moveto
63201.2 57639.8 lineto
stroke
newpath
63201.2 58112.2 moveto
62728.8 57639.8 lineto
stroke
newpath
63478.8 49862.2 moveto
63951.2 49389.8 lineto
stroke
newpath
63951.2 49862.2 moveto
63478.8 49389.8 lineto
stroke
newpath
67978.8 49862.2 moveto
68451.2 49389.8 lineto
stroke
newpath
68451.2 49862.2 moveto
67978.8 49389.8 lineto
stroke
newpath
69478.8 55862.2 moveto
69951.2 55389.8 lineto
stroke
newpath
69951.2 55862.2 moveto
69478.8 55389.8 lineto
stroke
newpath
70228.8 58112.2 moveto
70701.2 57639.8 lineto
stroke
newpath
70701.2 58112.2 moveto
70228.8 57639.8 lineto
stroke
newpath
72478.8 57362.2 moveto
72951.2 56889.8 lineto
stroke
newpath
72951.2 57362.2 moveto
72478.8 56889.8 lineto
stroke
newpath
75178.8 59162.2 moveto
75651.2 58689.8 lineto
stroke
newpath
75651.2 59162.2 moveto
75178.8 58689.8 lineto
stroke
newpath
75478.8 49862.2 moveto
75951.2 49389.8 lineto
stroke
newpath
75951.2 49862.2 moveto
75478.8 49389.8 lineto
stroke
50215 64626 590.551 cir0
53215 64626 590.551 cir0
65215 64626 590.551 cir0
68215 64626 590.551 cir0
77215 64626 590.551 cir0
77215 61626 590.551 cir0
77215 55626 590.551 cir0
77215 52626 590.551 cir0
118.11 setlinewidth
0 0 0 setrgbcolor
0 0 0 setrgbcolor
newpath
38563.1 46263 moveto
38563.1 47444.1 lineto
38844.4 47444.1 lineto
39013.1 47387.8 lineto
39125.6 47275.3 lineto
39181.8 47162.8 lineto
39238.1 46937.9 lineto
39238.1 46769.1 lineto
39181.8 46544.2 lineto
39125.6 46431.7 lineto
39013.1 46319.2 lineto
38844.4 46263 lineto
38563.1 46263 lineto
stroke
newpath
39744.2 46263 moveto
39744.2 47050.4 lineto
stroke
newpath
39744.2 46825.4 moveto
39800.5 46937.9 lineto
39856.7 46994.1 lineto
39969.2 47050.4 lineto
40081.7 47050.4 lineto
stroke
newpath
40475.4 46263 moveto
40475.4 47050.4 lineto
stroke
newpath
40475.4 47444.1 moveto
40419.2 47387.8 lineto
40475.4 47331.6 lineto
40531.6 47387.8 lineto
40475.4 47444.1 lineto
40475.4 47331.6 lineto
stroke
newpath
41206.6 46263 moveto
41094.1 46319.2 lineto
41037.8 46431.7 lineto
41037.8 47444.1 lineto
stroke
newpath
41825.2 46263 moveto
41712.7 46319.2 lineto
41656.5 46431.7 lineto
41656.5 47444.1 lineto
stroke
newpath
43175.1 46263 moveto
43175.1 47444.1 lineto
43568.8 46600.4 lineto
43962.5 47444.1 lineto
43962.5 46263 lineto
stroke
newpath
45031.1 46263 moveto
45031.1 46881.6 lineto
44974.8 46994.1 lineto
44862.4 47050.4 lineto
44637.4 47050.4 lineto
44524.9 46994.1 lineto
stroke
newpath
45031.1 46319.2 moveto
44918.6 46263 lineto
44637.4 46263 lineto
44524.9 46319.2 lineto
44468.7 46431.7 lineto
44468.7 46544.2 lineto
44524.9 46656.7 lineto
44637.4 46712.9 lineto
44918.6 46712.9 lineto
45031.1 46769.1 lineto
stroke
newpath
45593.5 47050.4 moveto
45593.5 45869.2 lineto
stroke
newpath
45593.5 46994.1 moveto
45706 47050.4 lineto
45931 47050.4 lineto
46043.5 46994.1 lineto
46099.7 46937.9 lineto
46155.9 46825.4 lineto
46155.9 46487.9 lineto
46099.7 46375.4 lineto
46043.5 46319.2 lineto
45931 46263 lineto
45706 46263 lineto
45593.5 46319.2 lineto
stroke
newpath
46662.1 46375.4 moveto
46718.4 46319.2 lineto
46662.1 46263 lineto
46605.9 46319.2 lineto
46662.1 46375.4 lineto
46662.1 46263 lineto
stroke
newpath
46662.1 46994.1 moveto
46718.4 46937.9 lineto
46662.1 46881.6 lineto
46605.9 46937.9 lineto
46662.1 46994.1 lineto
46662.1 46881.6 lineto
stroke
newpath
36963 44553.2 moveto
37435.5 44080.7 lineto
stroke
newpath
37435.5 44553.2 moveto
36963 44080.7 lineto
stroke
0 0 0 setrgbcolor
0 0 0 setrgbcolor
newpath
38788.1 44963.7 moveto
38900.6 44963.7 lineto
39013.1 44907.5 lineto
39069.3 44851.3 lineto
39125.6 44738.8 lineto
39181.8 44513.8 lineto
39181.8 44232.6 lineto
39125.6 44007.6 lineto
39069.3 43895.1 lineto
39013.1 43838.9 lineto
38900.6 43782.6 lineto
38788.1 43782.6 lineto
38675.6 43838.9 lineto
38619.4 43895.1 lineto
38563.1 44007.6 lineto
38506.9 44232.6 lineto
38506.9 44513.8 lineto
38563.1 44738.8 lineto
38619.4 44851.3 lineto
38675.6 44907.5 lineto
38788.1 44963.7 lineto
stroke
newpath
39688 43895.1 moveto
39744.2 43838.9 lineto
39688 43782.6 lineto
39631.8 43838.9 lineto
39688 43895.1 lineto
39688 43782.6 lineto
stroke
newpath
40756.6 44570 moveto
40756.6 43782.6 lineto
stroke
newpath
40475.4 45020 moveto
40194.2 44176.3 lineto
40925.3 44176.3 lineto
stroke
newpath
41600.3 44963.7 moveto
41712.7 44963.7 lineto
41825.2 44907.5 lineto
41881.5 44851.3 lineto
41937.7 44738.8 lineto
41994 44513.8 lineto
41994 44232.6 lineto
41937.7 44007.6 lineto
41881.5 43895.1 lineto
41825.2 43838.9 lineto
41712.7 43782.6 lineto
41600.3 43782.6 lineto
41487.8 43838.9 lineto
41431.5 43895.1 lineto
41375.3 44007.6 lineto
41319 44232.6 lineto
41319 44513.8 lineto
41375.3 44738.8 lineto
41431.5 44851.3 lineto
41487.8 44907.5 lineto
41600.3 44963.7 lineto
stroke
newpath
42725.1 44963.7 moveto
42837.6 44963.7 lineto
42950.1 44907.5 lineto
43006.3 44851.3 lineto
43062.6 44738.8 lineto
43118.8 44513.8 lineto
43118.8 44232.6 lineto
43062.6 44007.6 lineto
43006.3 43895.1 lineto
42950.1 43838.9 lineto
42837.6 43782.6 lineto
42725.1 43782.6 lineto
42612.6 43838.9 lineto
42556.4 43895.1 lineto
42500.2 44007.6 lineto
42443.9 44232.6 lineto
42443.9 44513.8 lineto
42500.2 44738.8 lineto
42556.4 44851.3 lineto
42612.6 44907.5 lineto
42725.1 44963.7 lineto
stroke
newpath
43625 43782.6 moveto
43625 44570 lineto
stroke
newpath
43625 44457.6 moveto
43681.3 44513.8 lineto
43793.7 44570 lineto
43962.5 44570 lineto
44075 44513.8 lineto
44131.2 44401.3 lineto
44131.2 43782.6 lineto
stroke
newpath
44131.2 44401.3 moveto
44187.4 44513.8 lineto
44299.9 44570 lineto
44468.7 44570 lineto
44581.1 44513.8 lineto
44637.4 44401.3 lineto
44637.4 43782.6 lineto
stroke
newpath
45199.8 43782.6 moveto
45199.8 44570 lineto
stroke
newpath
45199.8 44457.6 moveto
45256.1 44513.8 lineto
45368.5 44570 lineto
45537.3 44570 lineto
45649.8 44513.8 lineto
45706 44401.3 lineto
45706 43782.6 lineto
stroke
newpath
45706 44401.3 moveto
45762.2 44513.8 lineto
45874.7 44570 lineto
46043.5 44570 lineto
46155.9 44513.8 lineto
46212.2 44401.3 lineto
46212.2 43782.6 lineto
stroke
newpath
48518.1 45020 moveto
47505.8 43501.4 lineto
stroke
newpath
50036.7 44963.7 moveto
50149.2 44963.7 lineto
50261.7 44907.5 lineto
50317.9 44851.3 lineto
50374.2 44738.8 lineto
50430.4 44513.8 lineto
50430.4 44232.6 lineto
50374.2 44007.6 lineto
50317.9 43895.1 lineto
50261.7 43838.9 lineto
50149.2 43782.6 lineto
50036.7 43782.6 lineto
49924.2 43838.9 lineto
49868 43895.1 lineto
49811.7 44007.6 lineto
49755.5 44232.6 lineto
49755.5 44513.8 lineto
49811.7 44738.8 lineto
49868 44851.3 lineto
49924.2 44907.5 lineto
50036.7 44963.7 lineto
stroke
newpath
50936.6 43895.1 moveto
50992.8 43838.9 lineto
50936.6 43782.6 lineto
50880.4 43838.9 lineto
50936.6 43895.1 lineto
50936.6 43782.6 lineto
stroke
newpath
51724 44963.7 moveto
51836.5 44963.7 lineto
51949 44907.5 lineto
52005.2 44851.3 lineto
52061.5 44738.8 lineto
52117.7 44513.8 lineto
52117.7 44232.6 lineto
52061.5 44007.6 lineto
52005.2 43895.1 lineto
51949 43838.9 lineto
51836.5 43782.6 lineto
51724 43782.6 lineto
51611.5 43838.9 lineto
51555.3 43895.1 lineto
51499 44007.6 lineto
51442.8 44232.6 lineto
51442.8 44513.8 lineto
51499 44738.8 lineto
51555.3 44851.3 lineto
51611.5 44907.5 lineto
51724 44963.7 lineto
stroke
newpath
53242.6 43782.6 moveto
52567.6 43782.6 lineto
stroke
newpath
52905.1 43782.6 moveto
52905.1 44963.7 lineto
52792.6 44795 lineto
52680.1 44682.5 lineto
52567.6 44626.3 lineto
stroke
newpath
54311.2 44963.7 moveto
53748.7 44963.7 lineto
53692.5 44401.3 lineto
53748.7 44457.6 lineto
53861.2 44513.8 lineto
54142.4 44513.8 lineto
54254.9 44457.6 lineto
54311.2 44401.3 lineto
54367.4 44288.8 lineto
54367.4 44007.6 lineto
54311.2 43895.1 lineto
54254.9 43838.9 lineto
54142.4 43782.6 lineto
53861.2 43782.6 lineto
53748.7 43838.9 lineto
53692.5 43895.1 lineto
stroke
newpath
54761.1 44963.7 moveto
55548.5 44963.7 lineto
55042.3 43782.6 lineto
stroke
newpath
55942.2 44963.7 moveto
55942.2 44738.8 lineto
stroke
newpath
56392.2 44963.7 moveto
56392.2 44738.8 lineto
stroke
newpath
58135.7 43332.7 moveto
58079.5 43388.9 lineto
57967 43557.7 lineto
57910.7 43670.1 lineto
57854.5 43838.9 lineto
57798.2 44120.1 lineto
57798.2 44345.1 lineto
57854.5 44626.3 lineto
57910.7 44795 lineto
57967 44907.5 lineto
58079.5 45076.2 lineto
58135.7 45132.5 lineto
stroke
newpath
58529.4 44851.3 moveto
58585.6 44907.5 lineto
58698.1 44963.7 lineto
58979.3 44963.7 lineto
59091.8 44907.5 lineto
59148.1 44851.3 lineto
59204.3 44738.8 lineto
59204.3 44626.3 lineto
59148.1 44457.6 lineto
58473.2 43782.6 lineto
59204.3 43782.6 lineto
stroke
newpath
60216.7 44570 moveto
60216.7 43782.6 lineto
stroke
newpath
59935.5 45020 moveto
59654.3 44176.3 lineto
60385.4 44176.3 lineto
stroke
newpath
61735.2 43782.6 moveto
61735.2 44963.7 lineto
stroke
newpath
62241.4 43782.6 moveto
62241.4 44401.3 lineto
62185.2 44513.8 lineto
62072.7 44570 lineto
61904 44570 lineto
61791.5 44513.8 lineto
61735.2 44457.6 lineto
stroke
newpath
62972.6 43782.6 moveto
62860.1 43838.9 lineto
62803.9 43895.1 lineto
62747.6 44007.6 lineto
62747.6 44345.1 lineto
62803.9 44457.6 lineto
62860.1 44513.8 lineto
62972.6 44570 lineto
63141.3 44570 lineto
63253.8 44513.8 lineto
63310 44457.6 lineto
63366.3 44345.1 lineto
63366.3 44007.6 lineto
63310 43895.1 lineto
63253.8 43838.9 lineto
63141.3 43782.6 lineto
62972.6 43782.6 lineto
stroke
newpath
64041.2 43782.6 moveto
63928.7 43838.9 lineto
63872.5 43951.4 lineto
63872.5 44963.7 lineto
stroke
newpath
64941.1 43838.9 moveto
64828.6 43782.6 lineto
64603.6 43782.6 lineto
64491.2 43838.9 lineto
64434.9 43951.4 lineto
64434.9 44401.3 lineto
64491.2 44513.8 lineto
64603.6 44570 lineto
64828.6 44570 lineto
64941.1 44513.8 lineto
64997.3 44401.3 lineto
64997.3 44288.8 lineto
64434.9 44176.3 lineto
stroke
newpath
65447.3 43838.9 moveto
65559.8 43782.6 lineto
65784.7 43782.6 lineto
65897.2 43838.9 lineto
65953.5 43951.4 lineto
65953.5 44007.6 lineto
65897.2 44120.1 lineto
65784.7 44176.3 lineto
65616 44176.3 lineto
65503.5 44232.6 lineto
65447.3 44345.1 lineto
65447.3 44401.3 lineto
65503.5 44513.8 lineto
65616 44570 lineto
65784.7 44570 lineto
65897.2 44513.8 lineto
stroke
newpath
66347.2 43332.7 moveto
66403.4 43388.9 lineto
66515.9 43557.7 lineto
66572.1 43670.1 lineto
66628.4 43838.9 lineto
66684.6 44120.1 lineto
66684.6 44345.1 lineto
66628.4 44626.3 lineto
66572.1 44795 lineto
66515.9 44907.5 lineto
66403.4 45076.2 lineto
66347.2 45132.5 lineto
stroke
36844.9 42757.9 590.551 cir0
0 0 0 setrgbcolor
0 0 0 setrgbcolor
newpath
39181.8 42223.6 moveto
38506.9 42223.6 lineto
stroke
newpath
38844.4 42223.6 moveto
38844.4 43404.7 lineto
38731.9 43236 lineto
38619.4 43123.5 lineto
38506.9 43067.2 lineto
stroke
newpath
39688 42336.1 moveto
39744.2 42279.8 lineto
39688 42223.6 lineto
39631.8 42279.8 lineto
39688 42336.1 lineto
39688 42223.6 lineto
stroke
newpath
40475.4 43404.7 moveto
40587.9 43404.7 lineto
40700.4 43348.4 lineto
40756.6 43292.2 lineto
40812.9 43179.7 lineto
40869.1 42954.7 lineto
40869.1 42673.5 lineto
40812.9 42448.6 lineto
40756.6 42336.1 lineto
40700.4 42279.8 lineto
40587.9 42223.6 lineto
40475.4 42223.6 lineto
40362.9 42279.8 lineto
40306.7 42336.1 lineto
40250.4 42448.6 lineto
40194.2 42673.5 lineto
40194.2 42954.7 lineto
40250.4 43179.7 lineto
40306.7 43292.2 lineto
40362.9 43348.4 lineto
40475.4 43404.7 lineto
stroke
newpath
41600.3 43404.7 moveto
41712.7 43404.7 lineto
41825.2 43348.4 lineto
41881.5 43292.2 lineto
41937.7 43179.7 lineto
41994 42954.7 lineto
41994 42673.5 lineto
41937.7 42448.6 lineto
41881.5 42336.1 lineto
41825.2 42279.8 lineto
41712.7 42223.6 lineto
41600.3 42223.6 lineto
41487.8 42279.8 lineto
41431.5 42336.1 lineto
41375.3 42448.6 lineto
41319 42673.5 lineto
41319 42954.7 lineto
41375.3 43179.7 lineto
41431.5 43292.2 lineto
41487.8 43348.4 lineto
41600.3 43404.7 lineto
stroke
newpath
42725.1 43404.7 moveto
42837.6 43404.7 lineto
42950.1 43348.4 lineto
43006.3 43292.2 lineto
43062.6 43179.7 lineto
43118.8 42954.7 lineto
43118.8 42673.5 lineto
43062.6 42448.6 lineto
43006.3 42336.1 lineto
42950.1 42279.8 lineto
42837.6 42223.6 lineto
42725.1 42223.6 lineto
42612.6 42279.8 lineto
42556.4 42336.1 lineto
42500.2 42448.6 lineto
42443.9 42673.5 lineto
42443.9 42954.7 lineto
42500.2 43179.7 lineto
42556.4 43292.2 lineto
42612.6 43348.4 lineto
42725.1 43404.7 lineto
stroke
newpath
43625 42223.6 moveto
43625 43011 lineto
stroke
newpath
43625 42898.5 moveto
43681.3 42954.7 lineto
43793.7 43011 lineto
43962.5 43011 lineto
44075 42954.7 lineto
44131.2 42842.3 lineto
44131.2 42223.6 lineto
stroke
newpath
44131.2 42842.3 moveto
44187.4 42954.7 lineto
44299.9 43011 lineto
44468.7 43011 lineto
44581.1 42954.7 lineto
44637.4 42842.3 lineto
44637.4 42223.6 lineto
stroke
newpath
45199.8 42223.6 moveto
45199.8 43011 lineto
stroke
newpath
45199.8 42898.5 moveto
45256.1 42954.7 lineto
45368.5 43011 lineto
45537.3 43011 lineto
45649.8 42954.7 lineto
45706 42842.3 lineto
45706 42223.6 lineto
stroke
newpath
45706 42842.3 moveto
45762.2 42954.7 lineto
45874.7 43011 lineto
46043.5 43011 lineto
46155.9 42954.7 lineto
46212.2 42842.3 lineto
46212.2 42223.6 lineto
stroke
newpath
48518.1 43460.9 moveto
47505.8 41942.4 lineto
stroke
newpath
50036.7 43404.7 moveto
50149.2 43404.7 lineto
50261.7 43348.4 lineto
50317.9 43292.2 lineto
50374.2 43179.7 lineto
50430.4 42954.7 lineto
50430.4 42673.5 lineto
50374.2 42448.6 lineto
50317.9 42336.1 lineto
50261.7 42279.8 lineto
50149.2 42223.6 lineto
50036.7 42223.6 lineto
49924.2 42279.8 lineto
49868 42336.1 lineto
49811.7 42448.6 lineto
49755.5 42673.5 lineto
49755.5 42954.7 lineto
49811.7 43179.7 lineto
49868 43292.2 lineto
49924.2 43348.4 lineto
50036.7 43404.7 lineto
stroke
newpath
50936.6 42336.1 moveto
50992.8 42279.8 lineto
50936.6 42223.6 lineto
50880.4 42279.8 lineto
50936.6 42336.1 lineto
50936.6 42223.6 lineto
stroke
newpath
51724 43404.7 moveto
51836.5 43404.7 lineto
51949 43348.4 lineto
52005.2 43292.2 lineto
52061.5 43179.7 lineto
52117.7 42954.7 lineto
52117.7 42673.5 lineto
52061.5 42448.6 lineto
52005.2 42336.1 lineto
51949 42279.8 lineto
51836.5 42223.6 lineto
51724 42223.6 lineto
51611.5 42279.8 lineto
51555.3 42336.1 lineto
51499 42448.6 lineto
51442.8 42673.5 lineto
51442.8 42954.7 lineto
51499 43179.7 lineto
51555.3 43292.2 lineto
51611.5 43348.4 lineto
51724 43404.7 lineto
stroke
newpath
52511.4 43404.7 moveto
53242.6 43404.7 lineto
52848.9 42954.7 lineto
53017.6 42954.7 lineto
53130.1 42898.5 lineto
53186.3 42842.3 lineto
53242.6 42729.8 lineto
53242.6 42448.6 lineto
53186.3 42336.1 lineto
53130.1 42279.8 lineto
53017.6 42223.6 lineto
52680.1 42223.6 lineto
52567.6 42279.8 lineto
52511.4 42336.1 lineto
stroke
newpath
53805 42223.6 moveto
54030 42223.6 lineto
54142.4 42279.8 lineto
54198.7 42336.1 lineto
54311.2 42504.8 lineto
54367.4 42729.8 lineto
54367.4 43179.7 lineto
54311.2 43292.2 lineto
54254.9 43348.4 lineto
54142.4 43404.7 lineto
53917.5 43404.7 lineto
53805 43348.4 lineto
53748.7 43292.2 lineto
53692.5 43179.7 lineto
53692.5 42898.5 lineto
53748.7 42786 lineto
53805 42729.8 lineto
53917.5 42673.5 lineto
54142.4 42673.5 lineto
54254.9 42729.8 lineto
54311.2 42786 lineto
54367.4 42898.5 lineto
stroke
newpath
55379.8 43011 moveto
55379.8 42223.6 lineto
stroke
newpath
55098.6 43460.9 moveto
54817.4 42617.3 lineto
55548.5 42617.3 lineto
stroke
newpath
55942.2 43404.7 moveto
55942.2 43179.7 lineto
stroke
newpath
56392.2 43404.7 moveto
56392.2 43179.7 lineto
stroke
newpath
58135.7 41773.6 moveto
58079.5 41829.9 lineto
57967 41998.6 lineto
57910.7 42111.1 lineto
57854.5 42279.8 lineto
57798.2 42561 lineto
57798.2 42786 lineto
57854.5 43067.2 lineto
57910.7 43236 lineto
57967 43348.4 lineto
58079.5 43517.2 lineto
58135.7 43573.4 lineto
stroke
newpath
58754.4 42898.5 moveto
58641.9 42954.7 lineto
58585.6 43011 lineto
58529.4 43123.5 lineto
58529.4 43179.7 lineto
58585.6 43292.2 lineto
58641.9 43348.4 lineto
58754.4 43404.7 lineto
58979.3 43404.7 lineto
59091.8 43348.4 lineto
59148.1 43292.2 lineto
59204.3 43179.7 lineto
59204.3 43123.5 lineto
59148.1 43011 lineto
59091.8 42954.7 lineto
58979.3 42898.5 lineto
58754.4 42898.5 lineto
58641.9 42842.3 lineto
58585.6 42786 lineto
58529.4 42673.5 lineto
58529.4 42448.6 lineto
58585.6 42336.1 lineto
58641.9 42279.8 lineto
58754.4 42223.6 lineto
58979.3 42223.6 lineto
59091.8 42279.8 lineto
59148.1 42336.1 lineto
59204.3 42448.6 lineto
59204.3 42673.5 lineto
59148.1 42786 lineto
59091.8 42842.3 lineto
58979.3 42898.5 lineto
stroke
newpath
60610.4 42223.6 moveto
60610.4 43404.7 lineto
stroke
newpath
61116.6 42223.6 moveto
61116.6 42842.3 lineto
61060.3 42954.7 lineto
60947.8 43011 lineto
60779.1 43011 lineto
60666.6 42954.7 lineto
60610.4 42898.5 lineto
stroke
newpath
61847.7 42223.6 moveto
61735.2 42279.8 lineto
61679 42336.1 lineto
61622.8 42448.6 lineto
61622.8 42786 lineto
61679 42898.5 lineto
61735.2 42954.7 lineto
61847.7 43011 lineto
62016.5 43011 lineto
62128.9 42954.7 lineto
62185.2 42898.5 lineto
62241.4 42786 lineto
62241.4 42448.6 lineto
62185.2 42336.1 lineto
62128.9 42279.8 lineto
62016.5 42223.6 lineto
61847.7 42223.6 lineto
stroke
newpath
62916.3 42223.6 moveto
62803.9 42279.8 lineto
62747.6 42392.3 lineto
62747.6 43404.7 lineto
stroke
newpath
63816.2 42279.8 moveto
63703.8 42223.6 lineto
63478.8 42223.6 lineto
63366.3 42279.8 lineto
63310 42392.3 lineto
63310 42842.3 lineto
63366.3 42954.7 lineto
63478.8 43011 lineto
63703.8 43011 lineto
63816.2 42954.7 lineto
63872.5 42842.3 lineto
63872.5 42729.8 lineto
63310 42617.3 lineto
stroke
newpath
64322.4 42279.8 moveto
64434.9 42223.6 lineto
64659.9 42223.6 lineto
64772.4 42279.8 lineto
64828.6 42392.3 lineto
64828.6 42448.6 lineto
64772.4 42561 lineto
64659.9 42617.3 lineto
64491.2 42617.3 lineto
64378.7 42673.5 lineto
64322.4 42786 lineto
64322.4 42842.3 lineto
64378.7 42954.7 lineto
64491.2 43011 lineto
64659.9 43011 lineto
64772.4 42954.7 lineto
stroke
newpath
65222.3 41773.6 moveto
65278.6 41829.9 lineto
65391 41998.6 lineto
65447.3 42111.1 lineto
65503.5 42279.8 lineto
65559.8 42561 lineto
65559.8 42786 lineto
65503.5 43067.2 lineto
65447.3 43236 lineto
65391 43348.4 lineto
65278.6 43517.2 lineto
65222.3 43573.4 lineto
stroke
showpage
grestore
%%EOF
