%TF.GenerationSoftware,KiCad,Pcbnew,5.1.10-1.fc33*%
%TF.CreationDate,2021-08-22T21:30:21-07:00*%
%TF.ProjectId,RJ45-quad,524a3435-2d71-4756-9164-2e6b69636164,rev?*%
%TF.SameCoordinates,Original*%
%TF.FileFunction,Legend,Top*%
%TF.FilePolarity,Positive*%
%FSLAX46Y46*%
G04 Gerber Fmt 4.6, Leading zero omitted, Abs format (unit mm)*
G04 Created by KiCad (PCBNEW 5.1.10-1.fc33) date 2021-08-22 21:30:21*
%MOMM*%
%LPD*%
G01*
G04 APERTURE LIST*
%ADD10C,0.120000*%
%ADD11C,0.100000*%
%ADD12C,0.150000*%
G04 APERTURE END LIST*
D10*
X70866000Y-86868000D02*
X71374000Y-86868000D01*
X71120000Y-85217000D02*
X71120000Y-86360000D01*
X70612000Y-86614000D02*
X71628000Y-86614000D01*
X70358000Y-86360000D02*
X71882000Y-86360000D01*
X70866000Y-94488000D02*
X71374000Y-94488000D01*
X70612000Y-94234000D02*
X71628000Y-94234000D01*
X70358000Y-93980000D02*
X71882000Y-93980000D01*
X71120000Y-92837000D02*
X71120000Y-93980000D01*
D11*
X65582857Y-90695428D02*
X65582857Y-90095428D01*
X65725714Y-90095428D01*
X65811428Y-90124000D01*
X65868571Y-90181142D01*
X65897142Y-90238285D01*
X65925714Y-90352571D01*
X65925714Y-90438285D01*
X65897142Y-90552571D01*
X65868571Y-90609714D01*
X65811428Y-90666857D01*
X65725714Y-90695428D01*
X65582857Y-90695428D01*
X66525714Y-90638285D02*
X66497142Y-90666857D01*
X66411428Y-90695428D01*
X66354285Y-90695428D01*
X66268571Y-90666857D01*
X66211428Y-90609714D01*
X66182857Y-90552571D01*
X66154285Y-90438285D01*
X66154285Y-90352571D01*
X66182857Y-90238285D01*
X66211428Y-90181142D01*
X66268571Y-90124000D01*
X66354285Y-90095428D01*
X66411428Y-90095428D01*
X66497142Y-90124000D01*
X66525714Y-90152571D01*
X69013428Y-81372000D02*
X69013428Y-81257714D01*
X69042000Y-81200571D01*
X69099142Y-81143428D01*
X69213428Y-81114857D01*
X69413428Y-81114857D01*
X69527714Y-81143428D01*
X69584857Y-81200571D01*
X69613428Y-81257714D01*
X69613428Y-81372000D01*
X69584857Y-81429142D01*
X69527714Y-81486285D01*
X69413428Y-81514857D01*
X69213428Y-81514857D01*
X69099142Y-81486285D01*
X69042000Y-81429142D01*
X69013428Y-81372000D01*
X69013428Y-80857714D02*
X69499142Y-80857714D01*
X69556285Y-80829142D01*
X69584857Y-80800571D01*
X69613428Y-80743428D01*
X69613428Y-80629142D01*
X69584857Y-80572000D01*
X69556285Y-80543428D01*
X69499142Y-80514857D01*
X69013428Y-80514857D01*
X69013428Y-80314857D02*
X69013428Y-79972000D01*
X69613428Y-80143428D02*
X69013428Y-80143428D01*
X69130857Y-89671428D02*
X69130857Y-89214285D01*
X69359428Y-89442857D02*
X68902285Y-89442857D01*
X68759428Y-88642857D02*
X68759428Y-88928571D01*
X69045142Y-88957142D01*
X69016571Y-88928571D01*
X68988000Y-88871428D01*
X68988000Y-88728571D01*
X69016571Y-88671428D01*
X69045142Y-88642857D01*
X69102285Y-88614285D01*
X69245142Y-88614285D01*
X69302285Y-88642857D01*
X69330857Y-88671428D01*
X69359428Y-88728571D01*
X69359428Y-88871428D01*
X69330857Y-88928571D01*
X69302285Y-88957142D01*
X68759428Y-88442857D02*
X69359428Y-88242857D01*
X68759428Y-88042857D01*
D10*
X67056000Y-83058000D02*
X67056000Y-82042000D01*
X66802000Y-83058000D02*
X66802000Y-82042000D01*
D11*
X65995714Y-82821428D02*
X65795714Y-82535714D01*
X65652857Y-82821428D02*
X65652857Y-82221428D01*
X65881428Y-82221428D01*
X65938571Y-82250000D01*
X65967142Y-82278571D01*
X65995714Y-82335714D01*
X65995714Y-82421428D01*
X65967142Y-82478571D01*
X65938571Y-82507142D01*
X65881428Y-82535714D01*
X65652857Y-82535714D01*
X66567142Y-82250000D02*
X66510000Y-82221428D01*
X66424285Y-82221428D01*
X66338571Y-82250000D01*
X66281428Y-82307142D01*
X66252857Y-82364285D01*
X66224285Y-82478571D01*
X66224285Y-82564285D01*
X66252857Y-82678571D01*
X66281428Y-82735714D01*
X66338571Y-82792857D01*
X66424285Y-82821428D01*
X66481428Y-82821428D01*
X66567142Y-82792857D01*
X66595714Y-82764285D01*
X66595714Y-82564285D01*
X66481428Y-82564285D01*
X67624285Y-82821428D02*
X67281428Y-82821428D01*
X67452857Y-82821428D02*
X67452857Y-82221428D01*
X67395714Y-82307142D01*
X67338571Y-82364285D01*
X67281428Y-82392857D01*
X67881428Y-82821428D02*
X67881428Y-82221428D01*
X68081428Y-82650000D01*
X68281428Y-82221428D01*
X68281428Y-82821428D01*
X68538571Y-82821428D02*
X68681428Y-82821428D01*
X68681428Y-82707142D01*
X68624285Y-82678571D01*
X68567142Y-82621428D01*
X68538571Y-82535714D01*
X68538571Y-82392857D01*
X68567142Y-82307142D01*
X68624285Y-82250000D01*
X68710000Y-82221428D01*
X68824285Y-82221428D01*
X68910000Y-82250000D01*
X68967142Y-82307142D01*
X68995714Y-82392857D01*
X68995714Y-82535714D01*
X68967142Y-82621428D01*
X68910000Y-82678571D01*
X68852857Y-82707142D01*
X68852857Y-82821428D01*
X68995714Y-82821428D01*
X58305714Y-82313428D02*
X58105714Y-82027714D01*
X57962857Y-82313428D02*
X57962857Y-81713428D01*
X58191428Y-81713428D01*
X58248571Y-81742000D01*
X58277142Y-81770571D01*
X58305714Y-81827714D01*
X58305714Y-81913428D01*
X58277142Y-81970571D01*
X58248571Y-81999142D01*
X58191428Y-82027714D01*
X57962857Y-82027714D01*
X58877142Y-81742000D02*
X58820000Y-81713428D01*
X58734285Y-81713428D01*
X58648571Y-81742000D01*
X58591428Y-81799142D01*
X58562857Y-81856285D01*
X58534285Y-81970571D01*
X58534285Y-82056285D01*
X58562857Y-82170571D01*
X58591428Y-82227714D01*
X58648571Y-82284857D01*
X58734285Y-82313428D01*
X58791428Y-82313428D01*
X58877142Y-82284857D01*
X58905714Y-82256285D01*
X58905714Y-82056285D01*
X58791428Y-82056285D01*
D10*
X46482000Y-84074000D02*
X46482000Y-79756000D01*
X52578000Y-84074000D02*
X52578000Y-79756000D01*
X51562000Y-83820000D02*
X52070000Y-83820000D01*
X46990000Y-83820000D02*
X47498000Y-83820000D01*
X47244000Y-84074000D02*
X47244000Y-83566000D01*
X50038000Y-83820000D02*
X51054000Y-83820000D01*
X50038000Y-83312000D02*
X49022000Y-83820000D01*
X50038000Y-84328000D02*
X50038000Y-83312000D01*
X49022000Y-83820000D02*
X50038000Y-84328000D01*
X49022000Y-84328000D02*
X49022000Y-83820000D01*
X49022000Y-83312000D02*
X49022000Y-84328000D01*
X49022000Y-83820000D02*
X49022000Y-83312000D01*
X48006000Y-83820000D02*
X49022000Y-83820000D01*
%TO.C,C1*%
X47103420Y-89660000D02*
X47384580Y-89660000D01*
X47103420Y-90680000D02*
X47384580Y-90680000D01*
%TO.C,C2*%
X47384580Y-87120000D02*
X47103420Y-87120000D01*
X47384580Y-88140000D02*
X47103420Y-88140000D01*
%TO.C,C3*%
X69090000Y-92569420D02*
X69090000Y-92850580D01*
X68070000Y-92569420D02*
X68070000Y-92850580D01*
%TO.C,J1*%
X46930000Y-81280000D02*
X46930000Y-79950000D01*
X46930000Y-79950000D02*
X48260000Y-79950000D01*
X49530000Y-79950000D02*
X52130000Y-79950000D01*
X52130000Y-82610000D02*
X52130000Y-79950000D01*
X49530000Y-82610000D02*
X52130000Y-82610000D01*
X49530000Y-82610000D02*
X49530000Y-79950000D01*
%TO.C,J2*%
X69790000Y-90170000D02*
X72450000Y-90170000D01*
X69790000Y-90170000D02*
X69790000Y-92770000D01*
X69790000Y-92770000D02*
X72450000Y-92770000D01*
X72450000Y-90170000D02*
X72450000Y-92770000D01*
X72450000Y-87570000D02*
X72450000Y-88900000D01*
X71120000Y-87570000D02*
X72450000Y-87570000D01*
%TO.C,J3*%
X62230000Y-82610000D02*
X62230000Y-79950000D01*
X62230000Y-82610000D02*
X64830000Y-82610000D01*
X64830000Y-82610000D02*
X64830000Y-79950000D01*
X62230000Y-79950000D02*
X64830000Y-79950000D01*
X59630000Y-79950000D02*
X60960000Y-79950000D01*
X59630000Y-81280000D02*
X59630000Y-79950000D01*
%TO.C,J4*%
X71120000Y-79950000D02*
X72450000Y-79950000D01*
X72450000Y-79950000D02*
X72450000Y-81280000D01*
X72450000Y-82550000D02*
X72450000Y-85150000D01*
X69790000Y-85150000D02*
X72450000Y-85150000D01*
X69790000Y-82550000D02*
X69790000Y-85150000D01*
X69790000Y-82550000D02*
X72450000Y-82550000D01*
%TO.C,JP1*%
X66340000Y-94110000D02*
X65740000Y-94110000D01*
X67040000Y-92010000D02*
X67040000Y-93410000D01*
X65740000Y-91310000D02*
X66340000Y-91310000D01*
X65040000Y-93410000D02*
X65040000Y-92010000D01*
X65040000Y-92010000D02*
G75*
G02*
X65740000Y-91310000I700000J0D01*
G01*
X66340000Y-91310000D02*
G75*
G02*
X67040000Y-92010000I0J-700000D01*
G01*
X67040000Y-93410000D02*
G75*
G02*
X66340000Y-94110000I-700000J0D01*
G01*
X65740000Y-94110000D02*
G75*
G02*
X65040000Y-93410000I0J700000D01*
G01*
%TO.C,JP2*%
X66483000Y-83328000D02*
X67883000Y-83328000D01*
X68583000Y-84028000D02*
X68583000Y-84628000D01*
X67883000Y-85328000D02*
X66483000Y-85328000D01*
X65783000Y-84628000D02*
X65783000Y-84028000D01*
X65783000Y-84028000D02*
G75*
G02*
X66483000Y-83328000I700000J0D01*
G01*
X66483000Y-85328000D02*
G75*
G02*
X65783000Y-84628000I0J700000D01*
G01*
X68583000Y-84628000D02*
G75*
G02*
X67883000Y-85328000I-700000J0D01*
G01*
X67883000Y-83328000D02*
G75*
G02*
X68583000Y-84028000I0J-700000D01*
G01*
%TO.C,R1*%
X62627742Y-86247500D02*
X63102258Y-86247500D01*
X62627742Y-85202500D02*
X63102258Y-85202500D01*
%TO.C,R2*%
X62627742Y-83297500D02*
X63102258Y-83297500D01*
X62627742Y-84342500D02*
X63102258Y-84342500D01*
%TO.C,R3*%
X66945742Y-80757500D02*
X67420258Y-80757500D01*
X66945742Y-81802500D02*
X67420258Y-81802500D01*
D12*
%TO.C,RN2*%
X38889000Y-86175000D02*
X44164000Y-86175000D01*
X40164000Y-91575000D02*
X44164000Y-91575000D01*
D10*
%TO.C,RN3*%
X63365000Y-91215000D02*
X62365000Y-91215000D01*
X63365000Y-87855000D02*
X62365000Y-87855000D01*
%TO.C,U1*%
X54610000Y-84465000D02*
X51160000Y-84465000D01*
X54610000Y-84465000D02*
X56560000Y-84465000D01*
X54610000Y-93335000D02*
X52660000Y-93335000D01*
X54610000Y-93335000D02*
X56560000Y-93335000D01*
%TO.C,R4*%
X43577742Y-83834500D02*
X44052258Y-83834500D01*
X43577742Y-82789500D02*
X44052258Y-82789500D01*
%TO.C,R5*%
X43577742Y-81265500D02*
X44052258Y-81265500D01*
X43577742Y-82310500D02*
X44052258Y-82310500D01*
%TO.C,C4*%
X49274000Y-89040580D02*
X49274000Y-88759420D01*
X50294000Y-89040580D02*
X50294000Y-88759420D01*
%TO.C,C1*%
D11*
X47144000Y-91654285D02*
X47115428Y-91682857D01*
X47029714Y-91711428D01*
X46972571Y-91711428D01*
X46886857Y-91682857D01*
X46829714Y-91625714D01*
X46801142Y-91568571D01*
X46772571Y-91454285D01*
X46772571Y-91368571D01*
X46801142Y-91254285D01*
X46829714Y-91197142D01*
X46886857Y-91140000D01*
X46972571Y-91111428D01*
X47029714Y-91111428D01*
X47115428Y-91140000D01*
X47144000Y-91168571D01*
X47715428Y-91711428D02*
X47372571Y-91711428D01*
X47544000Y-91711428D02*
X47544000Y-91111428D01*
X47486857Y-91197142D01*
X47429714Y-91254285D01*
X47372571Y-91282857D01*
%TO.C,C2*%
X47144000Y-86574285D02*
X47115428Y-86602857D01*
X47029714Y-86631428D01*
X46972571Y-86631428D01*
X46886857Y-86602857D01*
X46829714Y-86545714D01*
X46801142Y-86488571D01*
X46772571Y-86374285D01*
X46772571Y-86288571D01*
X46801142Y-86174285D01*
X46829714Y-86117142D01*
X46886857Y-86060000D01*
X46972571Y-86031428D01*
X47029714Y-86031428D01*
X47115428Y-86060000D01*
X47144000Y-86088571D01*
X47372571Y-86088571D02*
X47401142Y-86060000D01*
X47458285Y-86031428D01*
X47601142Y-86031428D01*
X47658285Y-86060000D01*
X47686857Y-86088571D01*
X47715428Y-86145714D01*
X47715428Y-86202857D01*
X47686857Y-86288571D01*
X47344000Y-86631428D01*
X47715428Y-86631428D01*
%TO.C,C3*%
X68794285Y-90778000D02*
X68822857Y-90806571D01*
X68851428Y-90892285D01*
X68851428Y-90949428D01*
X68822857Y-91035142D01*
X68765714Y-91092285D01*
X68708571Y-91120857D01*
X68594285Y-91149428D01*
X68508571Y-91149428D01*
X68394285Y-91120857D01*
X68337142Y-91092285D01*
X68280000Y-91035142D01*
X68251428Y-90949428D01*
X68251428Y-90892285D01*
X68280000Y-90806571D01*
X68308571Y-90778000D01*
X68251428Y-90578000D02*
X68251428Y-90206571D01*
X68480000Y-90406571D01*
X68480000Y-90320857D01*
X68508571Y-90263714D01*
X68537142Y-90235142D01*
X68594285Y-90206571D01*
X68737142Y-90206571D01*
X68794285Y-90235142D01*
X68822857Y-90263714D01*
X68851428Y-90320857D01*
X68851428Y-90492285D01*
X68822857Y-90549428D01*
X68794285Y-90578000D01*
%TO.C,J1*%
X45391428Y-81480000D02*
X45820000Y-81480000D01*
X45905714Y-81508571D01*
X45962857Y-81565714D01*
X45991428Y-81651428D01*
X45991428Y-81708571D01*
X45991428Y-80880000D02*
X45991428Y-81222857D01*
X45991428Y-81051428D02*
X45391428Y-81051428D01*
X45477142Y-81108571D01*
X45534285Y-81165714D01*
X45562857Y-81222857D01*
%TO.C,J2*%
X71555000Y-93016428D02*
X71555000Y-93445000D01*
X71526428Y-93530714D01*
X71469285Y-93587857D01*
X71383571Y-93616428D01*
X71326428Y-93616428D01*
X71812142Y-93073571D02*
X71840714Y-93045000D01*
X71897857Y-93016428D01*
X72040714Y-93016428D01*
X72097857Y-93045000D01*
X72126428Y-93073571D01*
X72155000Y-93130714D01*
X72155000Y-93187857D01*
X72126428Y-93273571D01*
X71783571Y-93616428D01*
X72155000Y-93616428D01*
%TO.C,J3*%
X58726428Y-80845000D02*
X59155000Y-80845000D01*
X59240714Y-80873571D01*
X59297857Y-80930714D01*
X59326428Y-81016428D01*
X59326428Y-81073571D01*
X58726428Y-80616428D02*
X58726428Y-80245000D01*
X58955000Y-80445000D01*
X58955000Y-80359285D01*
X58983571Y-80302142D01*
X59012142Y-80273571D01*
X59069285Y-80245000D01*
X59212142Y-80245000D01*
X59269285Y-80273571D01*
X59297857Y-80302142D01*
X59326428Y-80359285D01*
X59326428Y-80530714D01*
X59297857Y-80587857D01*
X59269285Y-80616428D01*
%TO.C,J4*%
X71555000Y-85396428D02*
X71555000Y-85825000D01*
X71526428Y-85910714D01*
X71469285Y-85967857D01*
X71383571Y-85996428D01*
X71326428Y-85996428D01*
X72097857Y-85596428D02*
X72097857Y-85996428D01*
X71955000Y-85367857D02*
X71812142Y-85796428D01*
X72183571Y-85796428D01*
%TO.C,JP1*%
X63911428Y-93210000D02*
X64340000Y-93210000D01*
X64425714Y-93238571D01*
X64482857Y-93295714D01*
X64511428Y-93381428D01*
X64511428Y-93438571D01*
X64511428Y-92924285D02*
X63911428Y-92924285D01*
X63911428Y-92695714D01*
X63940000Y-92638571D01*
X63968571Y-92610000D01*
X64025714Y-92581428D01*
X64111428Y-92581428D01*
X64168571Y-92610000D01*
X64197142Y-92638571D01*
X64225714Y-92695714D01*
X64225714Y-92924285D01*
X64511428Y-92010000D02*
X64511428Y-92352857D01*
X64511428Y-92181428D02*
X63911428Y-92181428D01*
X63997142Y-92238571D01*
X64054285Y-92295714D01*
X64082857Y-92352857D01*
%TO.C,JP2*%
X65794000Y-85777428D02*
X65794000Y-86206000D01*
X65765428Y-86291714D01*
X65708285Y-86348857D01*
X65622571Y-86377428D01*
X65565428Y-86377428D01*
X66079714Y-86377428D02*
X66079714Y-85777428D01*
X66308285Y-85777428D01*
X66365428Y-85806000D01*
X66394000Y-85834571D01*
X66422571Y-85891714D01*
X66422571Y-85977428D01*
X66394000Y-86034571D01*
X66365428Y-86063142D01*
X66308285Y-86091714D01*
X66079714Y-86091714D01*
X66651142Y-85834571D02*
X66679714Y-85806000D01*
X66736857Y-85777428D01*
X66879714Y-85777428D01*
X66936857Y-85806000D01*
X66965428Y-85834571D01*
X66994000Y-85891714D01*
X66994000Y-85948857D01*
X66965428Y-86034571D01*
X66622571Y-86377428D01*
X66994000Y-86377428D01*
%TO.C,R1*%
X60606000Y-85996428D02*
X60406000Y-85710714D01*
X60263142Y-85996428D02*
X60263142Y-85396428D01*
X60491714Y-85396428D01*
X60548857Y-85425000D01*
X60577428Y-85453571D01*
X60606000Y-85510714D01*
X60606000Y-85596428D01*
X60577428Y-85653571D01*
X60548857Y-85682142D01*
X60491714Y-85710714D01*
X60263142Y-85710714D01*
X61177428Y-85996428D02*
X60834571Y-85996428D01*
X61006000Y-85996428D02*
X61006000Y-85396428D01*
X60948857Y-85482142D01*
X60891714Y-85539285D01*
X60834571Y-85567857D01*
%TO.C,R2*%
X60606000Y-84091428D02*
X60406000Y-83805714D01*
X60263142Y-84091428D02*
X60263142Y-83491428D01*
X60491714Y-83491428D01*
X60548857Y-83520000D01*
X60577428Y-83548571D01*
X60606000Y-83605714D01*
X60606000Y-83691428D01*
X60577428Y-83748571D01*
X60548857Y-83777142D01*
X60491714Y-83805714D01*
X60263142Y-83805714D01*
X60834571Y-83548571D02*
X60863142Y-83520000D01*
X60920285Y-83491428D01*
X61063142Y-83491428D01*
X61120285Y-83520000D01*
X61148857Y-83548571D01*
X61177428Y-83605714D01*
X61177428Y-83662857D01*
X61148857Y-83748571D01*
X60806000Y-84091428D01*
X61177428Y-84091428D01*
%TO.C,R3*%
X65940000Y-80281428D02*
X65740000Y-79995714D01*
X65597142Y-80281428D02*
X65597142Y-79681428D01*
X65825714Y-79681428D01*
X65882857Y-79710000D01*
X65911428Y-79738571D01*
X65940000Y-79795714D01*
X65940000Y-79881428D01*
X65911428Y-79938571D01*
X65882857Y-79967142D01*
X65825714Y-79995714D01*
X65597142Y-79995714D01*
X66140000Y-79681428D02*
X66511428Y-79681428D01*
X66311428Y-79910000D01*
X66397142Y-79910000D01*
X66454285Y-79938571D01*
X66482857Y-79967142D01*
X66511428Y-80024285D01*
X66511428Y-80167142D01*
X66482857Y-80224285D01*
X66454285Y-80252857D01*
X66397142Y-80281428D01*
X66225714Y-80281428D01*
X66168571Y-80252857D01*
X66140000Y-80224285D01*
%TO.C,RN2*%
X39463714Y-85671428D02*
X39263714Y-85385714D01*
X39120857Y-85671428D02*
X39120857Y-85071428D01*
X39349428Y-85071428D01*
X39406571Y-85100000D01*
X39435142Y-85128571D01*
X39463714Y-85185714D01*
X39463714Y-85271428D01*
X39435142Y-85328571D01*
X39406571Y-85357142D01*
X39349428Y-85385714D01*
X39120857Y-85385714D01*
X39720857Y-85671428D02*
X39720857Y-85071428D01*
X40063714Y-85671428D01*
X40063714Y-85071428D01*
X40320857Y-85128571D02*
X40349428Y-85100000D01*
X40406571Y-85071428D01*
X40549428Y-85071428D01*
X40606571Y-85100000D01*
X40635142Y-85128571D01*
X40663714Y-85185714D01*
X40663714Y-85242857D01*
X40635142Y-85328571D01*
X40292285Y-85671428D01*
X40663714Y-85671428D01*
%TO.C,RN3*%
X61307714Y-92219428D02*
X61107714Y-91933714D01*
X60964857Y-92219428D02*
X60964857Y-91619428D01*
X61193428Y-91619428D01*
X61250571Y-91648000D01*
X61279142Y-91676571D01*
X61307714Y-91733714D01*
X61307714Y-91819428D01*
X61279142Y-91876571D01*
X61250571Y-91905142D01*
X61193428Y-91933714D01*
X60964857Y-91933714D01*
X61564857Y-92219428D02*
X61564857Y-91619428D01*
X61907714Y-92219428D01*
X61907714Y-91619428D01*
X62136285Y-91619428D02*
X62507714Y-91619428D01*
X62307714Y-91848000D01*
X62393428Y-91848000D01*
X62450571Y-91876571D01*
X62479142Y-91905142D01*
X62507714Y-91962285D01*
X62507714Y-92105142D01*
X62479142Y-92162285D01*
X62450571Y-92190857D01*
X62393428Y-92219428D01*
X62222000Y-92219428D01*
X62164857Y-92190857D01*
X62136285Y-92162285D01*
%TO.C,U1*%
D12*
X53848095Y-83072380D02*
X53848095Y-83881904D01*
X53895714Y-83977142D01*
X53943333Y-84024761D01*
X54038571Y-84072380D01*
X54229047Y-84072380D01*
X54324285Y-84024761D01*
X54371904Y-83977142D01*
X54419523Y-83881904D01*
X54419523Y-83072380D01*
X55419523Y-84072380D02*
X54848095Y-84072380D01*
X55133809Y-84072380D02*
X55133809Y-83072380D01*
X55038571Y-83215238D01*
X54943333Y-83310476D01*
X54848095Y-83358095D01*
%TO.C,R4*%
D11*
X41556000Y-83583428D02*
X41356000Y-83297714D01*
X41213142Y-83583428D02*
X41213142Y-82983428D01*
X41441714Y-82983428D01*
X41498857Y-83012000D01*
X41527428Y-83040571D01*
X41556000Y-83097714D01*
X41556000Y-83183428D01*
X41527428Y-83240571D01*
X41498857Y-83269142D01*
X41441714Y-83297714D01*
X41213142Y-83297714D01*
X42070285Y-83183428D02*
X42070285Y-83583428D01*
X41927428Y-82954857D02*
X41784571Y-83383428D01*
X42156000Y-83383428D01*
%TO.C,R5*%
X41556000Y-82059428D02*
X41356000Y-81773714D01*
X41213142Y-82059428D02*
X41213142Y-81459428D01*
X41441714Y-81459428D01*
X41498857Y-81488000D01*
X41527428Y-81516571D01*
X41556000Y-81573714D01*
X41556000Y-81659428D01*
X41527428Y-81716571D01*
X41498857Y-81745142D01*
X41441714Y-81773714D01*
X41213142Y-81773714D01*
X42098857Y-81459428D02*
X41813142Y-81459428D01*
X41784571Y-81745142D01*
X41813142Y-81716571D01*
X41870285Y-81688000D01*
X42013142Y-81688000D01*
X42070285Y-81716571D01*
X42098857Y-81745142D01*
X42127428Y-81802285D01*
X42127428Y-81945142D01*
X42098857Y-82002285D01*
X42070285Y-82030857D01*
X42013142Y-82059428D01*
X41870285Y-82059428D01*
X41813142Y-82030857D01*
X41784571Y-82002285D01*
%TO.C,C4*%
X49998285Y-91032000D02*
X50026857Y-91060571D01*
X50055428Y-91146285D01*
X50055428Y-91203428D01*
X50026857Y-91289142D01*
X49969714Y-91346285D01*
X49912571Y-91374857D01*
X49798285Y-91403428D01*
X49712571Y-91403428D01*
X49598285Y-91374857D01*
X49541142Y-91346285D01*
X49484000Y-91289142D01*
X49455428Y-91203428D01*
X49455428Y-91146285D01*
X49484000Y-91060571D01*
X49512571Y-91032000D01*
X49655428Y-90517714D02*
X50055428Y-90517714D01*
X49426857Y-90660571D02*
X49855428Y-90803428D01*
X49855428Y-90432000D01*
%TD*%
M02*
