%!PS-Adobe-3.0
%%Creator: PCBNEW
%%CreationDate: Sun Aug 22 21:30:33 2021
%%Title: /home/aaron/Documents/Reflection-analyzer/RJ45-quad/gerber/RJ45-quad-NPTH-drl_map.ps
%%Pages: 1
%%PageOrder: Ascend
%%BoundingBox: 0 0 596 842
%%DocumentMedia: A4 595 842 0 () ()
%%Orientation: Landscape
%%EndComments
%%BeginProlog
/line { newpath moveto lineto stroke } bind def
/cir0 { newpath 0 360 arc stroke } bind def
/cir1 { newpath 0 360 arc gsave fill grestore stroke } bind def
/cir2 { newpath 0 360 arc gsave fill grestore stroke } bind def
/arc0 { newpath arc stroke } bind def
/arc1 { newpath 4 index 4 index moveto arc closepath gsave fill
    grestore stroke } bind def
/arc2 { newpath 4 index 4 index moveto arc closepath gsave fill
    grestore stroke } bind def
/poly0 { stroke } bind def
/poly1 { closepath gsave fill grestore stroke } bind def
/poly2 { closepath gsave fill grestore stroke } bind def
/rect0 { rectstroke } bind def
/rect1 { rectfill } bind def
/rect2 { rectfill } bind def
/linemode0 { 0 setlinecap 0 setlinejoin 0 setlinewidth } bind def
/linemode1 { 1 setlinecap 1 setlinejoin } bind def
/dashedline { [200] 100 setdash } bind def
/solidline { [] 0 setdash } bind def
/phantomshow { moveto
    /KicadFont findfont 0.000001 scalefont setfont
    show } bind def
/textshow { gsave
    findfont exch scalefont setfont concat 1 scale 0 0 moveto show
    } bind def
/reencodefont {
  findfont dup length dict begin
  { 1 index /FID ne
    { def }
    { pop pop } ifelse
  } forall
  /Encoding ISOLatin1Encoding def
  currentdict
  end } bind def
/KicadFont /Helvetica reencodefont definefont pop
/KicadFont-Bold /Helvetica-Bold reencodefont definefont pop
/KicadFont-Oblique /Helvetica-Oblique reencodefont definefont pop
/KicadFont-BoldOblique /Helvetica-BoldOblique reencodefont definefont pop
%%EndProlog
%%Page: 1 1
%%BeginPageSetup
gsave
0.0072 0.0072 scale
linemode1
82680 0 translate 90 rotate
150 setlinewidth
%%EndPageSetup
0 0 0 setrgbcolor
59.0551 setlinewidth
39715 50376 2250 180 270 arc0
0 0 0 setrgbcolor
39715 65376 2250 90 180 arc0
0 0 0 setrgbcolor
77965 66126 1500 -0 90 arc0
0 0 0 setrgbcolor
77215 50376 2250 -90 -0 arc0
0 0 0 setrgbcolor
newpath
79465 50376 moveto
79465 66126 lineto
stroke
0 0 0 setrgbcolor
newpath
39715 48126 moveto
77215 48126 lineto
stroke
0 0 0 setrgbcolor
newpath
37465 65376 moveto
37465 50376 lineto
stroke
0 0 0 setrgbcolor
newpath
77965 67626 moveto
39715 67626 lineto
stroke
78.7394 setlinewidth
118.11 setlinewidth
0 0 0 setrgbcolor
0 0 0 setrgbcolor
newpath
38563.1 46263 moveto
38563.1 47444.1 lineto
38844.4 47444.1 lineto
39013.1 47387.8 lineto
39125.6 47275.3 lineto
39181.8 47162.8 lineto
39238.1 46937.9 lineto
39238.1 46769.1 lineto
39181.8 46544.2 lineto
39125.6 46431.7 lineto
39013.1 46319.2 lineto
38844.4 46263 lineto
38563.1 46263 lineto
stroke
newpath
39744.2 46263 moveto
39744.2 47050.4 lineto
stroke
newpath
39744.2 46825.4 moveto
39800.5 46937.9 lineto
39856.7 46994.1 lineto
39969.2 47050.4 lineto
40081.7 47050.4 lineto
stroke
newpath
40475.4 46263 moveto
40475.4 47050.4 lineto
stroke
newpath
40475.4 47444.1 moveto
40419.2 47387.8 lineto
40475.4 47331.6 lineto
40531.6 47387.8 lineto
40475.4 47444.1 lineto
40475.4 47331.6 lineto
stroke
newpath
41206.6 46263 moveto
41094.1 46319.2 lineto
41037.8 46431.7 lineto
41037.8 47444.1 lineto
stroke
newpath
41825.2 46263 moveto
41712.7 46319.2 lineto
41656.5 46431.7 lineto
41656.5 47444.1 lineto
stroke
newpath
43175.1 46263 moveto
43175.1 47444.1 lineto
43568.8 46600.4 lineto
43962.5 47444.1 lineto
43962.5 46263 lineto
stroke
newpath
45031.1 46263 moveto
45031.1 46881.6 lineto
44974.8 46994.1 lineto
44862.4 47050.4 lineto
44637.4 47050.4 lineto
44524.9 46994.1 lineto
stroke
newpath
45031.1 46319.2 moveto
44918.6 46263 lineto
44637.4 46263 lineto
44524.9 46319.2 lineto
44468.7 46431.7 lineto
44468.7 46544.2 lineto
44524.9 46656.7 lineto
44637.4 46712.9 lineto
44918.6 46712.9 lineto
45031.1 46769.1 lineto
stroke
newpath
45593.5 47050.4 moveto
45593.5 45869.2 lineto
stroke
newpath
45593.5 46994.1 moveto
45706 47050.4 lineto
45931 47050.4 lineto
46043.5 46994.1 lineto
46099.7 46937.9 lineto
46155.9 46825.4 lineto
46155.9 46487.9 lineto
46099.7 46375.4 lineto
46043.5 46319.2 lineto
45931 46263 lineto
45706 46263 lineto
45593.5 46319.2 lineto
stroke
newpath
46662.1 46375.4 moveto
46718.4 46319.2 lineto
46662.1 46263 lineto
46605.9 46319.2 lineto
46662.1 46375.4 lineto
46662.1 46263 lineto
stroke
newpath
46662.1 46994.1 moveto
46718.4 46937.9 lineto
46662.1 46881.6 lineto
46605.9 46937.9 lineto
46662.1 46994.1 lineto
46662.1 46881.6 lineto
stroke
showpage
grestore
%%EOF
